data/2019_confocal_cavity/finesse_ringdown/DS0055.CSV

Format,2.0E,
Memory Length,10000,
IntpDistance,0,
Trigger Address,5129,
Trigger Level,2.680E-01,
Source,CH1,
Vertical Units,V,
Vertical Units Div,0,
Vertical Units Extend Div,16,
Label, ,
Probe Type,0,
Probe Ratio,1.000E+00,
Vertical Scale,5.000E-02,
Vertical Position,-2.380E-01,
Horizontal Units,S,
Horizontal Scale,5.000E-07,
Horizontal Position,-1.300E-07,
Horizontal Mode,Main,
SincET Mode,Real Time,
Sampling Period,1.000E-09,
Horizontal Old Scale,5.000E-07,
Horizontal Old Position,-1.300E-07,
Firmware,V1.26,
Time,24-Aug-19 04:59:38,
Mode,Detail,
Waveform Data,
-5.130000e-06,1.44e-01,
-5.129000e-06,1.44e-01,
-5.128000e-06,1.42e-01,
-5.127000e-06,1.40e-01,
-5.126000e-06,1.40e-01,
-5.125000e-06,1.38e-01,
-5.124000e-06,1.38e-01,
-5.123000e-06,1.36e-01,
-5.122000e-06,1.38e-01,
-5.121000e-06,1.38e-01,
-5.120000e-06,1.38e-01,
-5.119000e-06,1.38e-01,
-5.118000e-06,1.40e-01,
-5.117000e-06,1.38e-01,
-5.116000e-06,1.40e-01,
-5.115000e-06,1.40e-01,
-5.114000e-06,1.42e-01,
-5.113000e-06,1.42e-01,
-5.112000e-06,1.44e-01,
-5.111000e-06,1.44e-01,
-5.110000e-06,1.46e-01,
-5.109000e-06,1.48e-01,
-5.108000e-06,1.50e-01,
-5.107000e-06,1.50e-01,
-5.106000e-06,1.52e-01,
-5.105000e-06,1.52e-01,
-5.104000e-06,1.52e-01,
-5.103000e-06,1.50e-01,
-5.102000e-06,1.50e-01,
-5.101000e-06,1.50e-01,
-5.100000e-06,1.50e-01,
-5.099000e-06,1.52e-01,
-5.098000e-06,1.52e-01,
-5.097000e-06,1.50e-01,
-5.096000e-06,1.50e-01,
-5.095000e-06,1.50e-01,
-5.094000e-06,1.50e-01,
-5.093000e-06,1.46e-01,
-5.092000e-06,1.46e-01,
-5.091000e-06,1.42e-01,
-5.090000e-06,1.44e-01,
-5.089000e-06,1.42e-01,
-5.088000e-06,1.42e-01,
-5.087000e-06,1.42e-01,
-5.086000e-06,1.40e-01,
-5.085000e-06,1.40e-01,
-5.084000e-06,1.40e-01,
-5.083000e-06,1.40e-01,
-5.082000e-06,1.40e-01,
-5.081000e-06,1.40e-01,
-5.080000e-06,1.42e-01,
-5.079000e-06,1.42e-01,
-5.078000e-06,1.44e-01,
-5.077000e-06,1.46e-01,
-5.076000e-06,1.46e-01,
-5.075000e-06,1.48e-01,
-5.074000e-06,1.48e-01,
-5.073000e-06,1.48e-01,
-5.072000e-06,1.46e-01,
-5.071000e-06,1.46e-01,
-5.070000e-06,1.44e-01,
-5.069000e-06,1.42e-01,
-5.068000e-06,1.42e-01,
-5.067000e-06,1.42e-01,
-5.066000e-06,1.40e-01,
-5.065000e-06,1.42e-01,
-5.064000e-06,1.42e-01,
-5.063000e-06,1.42e-01,
-5.062000e-06,1.44e-01,
-5.061000e-06,1.42e-01,
-5.060000e-06,1.42e-01,
-5.059000e-06,1.42e-01,
-5.058000e-06,1.42e-01,
-5.057000e-06,1.42e-01,
-5.056000e-06,1.44e-01,
-5.055000e-06,1.44e-01,
-5.054000e-06,1.44e-01,
-5.053000e-06,1.44e-01,
-5.052000e-06,1.44e-01,
-5.051000e-06,1.44e-01,
-5.050000e-06,1.44e-01,
-5.049000e-06,1.42e-01,
-5.048000e-06,1.44e-01,
-5.047000e-06,1.44e-01,
-5.046000e-06,1.46e-01,
-5.045000e-06,1.46e-01,
-5.044000e-06,1.48e-01,
-5.043000e-06,1.46e-01,
-5.042000e-06,1.46e-01,
-5.041000e-06,1.48e-01,
-5.040000e-06,1.48e-01,
-5.039000e-06,1.48e-01,
-5.038000e-06,1.48e-01,
-5.037000e-06,1.48e-01,
-5.036000e-06,1.50e-01,
-5.035000e-06,1.48e-01,
-5.034000e-06,1.48e-01,
-5.033000e-06,1.50e-01,
-5.032000e-06,1.50e-01,
-5.031000e-06,1.48e-01,
-5.030000e-06,1.48e-01,
-5.029000e-06,1.48e-01,
-5.028000e-06,1.46e-01,
-5.027000e-06,1.46e-01,
-5.026000e-06,1.48e-01,
-5.025000e-06,1.46e-01,
-5.024000e-06,1.44e-01,
-5.023000e-06,1.44e-01,
-5.022000e-06,1.44e-01,
-5.021000e-06,1.42e-01,
-5.020000e-06,1.44e-01,
-5.019000e-06,1.42e-01,
-5.018000e-06,1.44e-01,
-5.017000e-06,1.44e-01,
-5.016000e-06,1.44e-01,
-5.015000e-06,1.44e-01,
-5.014000e-06,1.44e-01,
-5.013000e-06,1.44e-01,
-5.012000e-06,1.44e-01,
-5.011000e-06,1.44e-01,
-5.010000e-06,1.46e-01,
-5.009000e-06,1.46e-01,
-5.008000e-06,1.48e-01,
-5.007000e-06,1.48e-01,
-5.006000e-06,1.48e-01,
-5.005000e-06,1.48e-01,
-5.004000e-06,1.48e-01,
-5.003000e-06,1.50e-01,
-5.002000e-06,1.50e-01,
-5.001000e-06,1.50e-01,
-5.000000e-06,1.50e-01,
-4.999000e-06,1.52e-01,
-4.998000e-06,1.50e-01,
-4.997000e-06,1.52e-01,
-4.996000e-06,1.50e-01,
-4.995000e-06,1.50e-01,
-4.994000e-06,1.50e-01,
-4.993000e-06,1.48e-01,
-4.992000e-06,1.48e-01,
-4.991000e-06,1.46e-01,
-4.990000e-06,1.46e-01,
-4.989000e-06,1.46e-01,
-4.988000e-06,1.46e-01,
-4.987000e-06,1.44e-01,
-4.986000e-06,1.46e-01,
-4.985000e-06,1.44e-01,
-4.984000e-06,1.42e-01,
-4.983000e-06,1.40e-01,
-4.982000e-06,1.42e-01,
-4.981000e-06,1.42e-01,
-4.980000e-06,1.40e-01,
-4.979000e-06,1.42e-01,
-4.978000e-06,1.44e-01,
-4.977000e-06,1.42e-01,
-4.976000e-06,1.44e-01,
-4.975000e-06,1.42e-01,
-4.974000e-06,1.42e-01,
-4.973000e-06,1.42e-01,
-4.972000e-06,1.40e-01,
-4.971000e-06,1.42e-01,
-4.970000e-06,1.42e-01,
-4.969000e-06,1.42e-01,
-4.968000e-06,1.44e-01,
-4.967000e-06,1.46e-01,
-4.966000e-06,1.48e-01,
-4.965000e-06,1.48e-01,
-4.964000e-06,1.48e-01,
-4.963000e-06,1.48e-01,
-4.962000e-06,1.48e-01,
-4.961000e-06,1.46e-01,
-4.960000e-06,1.44e-01,
-4.959000e-06,1.42e-01,
-4.958000e-06,1.44e-01,
-4.957000e-06,1.44e-01,
-4.956000e-06,1.44e-01,
-4.955000e-06,1.42e-01,
-4.954000e-06,1.42e-01,
-4.953000e-06,1.42e-01,
-4.952000e-06,1.42e-01,
-4.951000e-06,1.40e-01,
-4.950000e-06,1.38e-01,
-4.949000e-06,1.38e-01,
-4.948000e-06,1.38e-01,
-4.947000e-06,1.38e-01,
-4.946000e-06,1.40e-01,
-4.945000e-06,1.40e-01,
-4.944000e-06,1.44e-01,
-4.943000e-06,1.44e-01,
-4.942000e-06,1.46e-01,
-4.941000e-06,1.48e-01,
-4.940000e-06,1.48e-01,
-4.939000e-06,1.48e-01,
-4.938000e-06,1.48e-01,
-4.937000e-06,1.48e-01,
-4.936000e-06,1.48e-01,
-4.935000e-06,1.48e-01,
-4.934000e-06,1.48e-01,
-4.933000e-06,1.48e-01,
-4.932000e-06,1.46e-01,
-4.931000e-06,1.44e-01,
-4.930000e-06,1.44e-01,
-4.929000e-06,1.42e-01,
-4.928000e-06,1.44e-01,
-4.927000e-06,1.42e-01,
-4.926000e-06,1.42e-01,
-4.925000e-06,1.42e-01,
-4.924000e-06,1.42e-01,
-4.923000e-06,1.42e-01,
-4.922000e-06,1.46e-01,
-4.921000e-06,1.46e-01,
-4.920000e-06,1.50e-01,
-4.919000e-06,1.52e-01,
-4.918000e-06,1.54e-01,
-4.917000e-06,1.54e-01,
-4.916000e-06,1.54e-01,
-4.915000e-06,1.52e-01,
-4.914000e-06,1.50e-01,
-4.913000e-06,1.50e-01,
-4.912000e-06,1.48e-01,
-4.911000e-06,1.46e-01,
-4.910000e-06,1.46e-01,
-4.909000e-06,1.46e-01,
-4.908000e-06,1.44e-01,
-4.907000e-06,1.46e-01,
-4.906000e-06,1.46e-01,
-4.905000e-06,1.48e-01,
-4.904000e-06,1.50e-01,
-4.903000e-06,1.50e-01,
-4.902000e-06,1.48e-01,
-4.901000e-06,1.48e-01,
-4.900000e-06,1.46e-01,
-4.899000e-06,1.46e-01,
-4.898000e-06,1.46e-01,
-4.897000e-06,1.44e-01,
-4.896000e-06,1.44e-01,
-4.895000e-06,1.44e-01,
-4.894000e-06,1.44e-01,
-4.893000e-06,1.42e-01,
-4.892000e-06,1.44e-01,
-4.891000e-06,1.42e-01,
-4.890000e-06,1.40e-01,
-4.889000e-06,1.38e-01,
-4.888000e-06,1.38e-01,
-4.887000e-06,1.36e-01,
-4.886000e-06,1.36e-01,
-4.885000e-06,1.34e-01,
-4.884000e-06,1.36e-01,
-4.883000e-06,1.38e-01,
-4.882000e-06,1.40e-01,
-4.881000e-06,1.42e-01,
-4.880000e-06,1.44e-01,
-4.879000e-06,1.44e-01,
-4.878000e-06,1.44e-01,
-4.877000e-06,1.44e-01,
-4.876000e-06,1.44e-01,
-4.875000e-06,1.46e-01,
-4.874000e-06,1.44e-01,
-4.873000e-06,1.46e-01,
-4.872000e-06,1.46e-01,
-4.871000e-06,1.48e-01,
-4.870000e-06,1.48e-01,
-4.869000e-06,1.48e-01,
-4.868000e-06,1.48e-01,
-4.867000e-06,1.48e-01,
-4.866000e-06,1.44e-01,
-4.865000e-06,1.42e-01,
-4.864000e-06,1.44e-01,
-4.863000e-06,1.42e-01,
-4.862000e-06,1.44e-01,
-4.861000e-06,1.46e-01,
-4.860000e-06,1.46e-01,
-4.859000e-06,1.48e-01,
-4.858000e-06,1.46e-01,
-4.857000e-06,1.48e-01,
-4.856000e-06,1.48e-01,
-4.855000e-06,1.48e-01,
-4.854000e-06,1.48e-01,
-4.853000e-06,1.48e-01,
-4.852000e-06,1.46e-01,
-4.851000e-06,1.48e-01,
-4.850000e-06,1.48e-01,
-4.849000e-06,1.46e-01,
-4.848000e-06,1.46e-01,
-4.847000e-06,1.46e-01,
-4.846000e-06,1.46e-01,
-4.845000e-06,1.46e-01,
-4.844000e-06,1.48e-01,
-4.843000e-06,1.48e-01,
-4.842000e-06,1.46e-01,
-4.841000e-06,1.44e-01,
-4.840000e-06,1.42e-01,
-4.839000e-06,1.40e-01,
-4.838000e-06,1.38e-01,
-4.837000e-06,1.36e-01,
-4.836000e-06,1.38e-01,
-4.835000e-06,1.38e-01,
-4.834000e-06,1.38e-01,
-4.833000e-06,1.40e-01,
-4.832000e-06,1.42e-01,
-4.831000e-06,1.44e-01,
-4.830000e-06,1.48e-01,
-4.829000e-06,1.50e-01,
-4.828000e-06,1.52e-01,
-4.827000e-06,1.54e-01,
-4.826000e-06,1.54e-01,
-4.825000e-06,1.54e-01,
-4.824000e-06,1.54e-01,
-4.823000e-06,1.52e-01,
-4.822000e-06,1.52e-01,
-4.821000e-06,1.48e-01,
-4.820000e-06,1.46e-01,
-4.819000e-06,1.46e-01,
-4.818000e-06,1.46e-01,
-4.817000e-06,1.44e-01,
-4.816000e-06,1.44e-01,
-4.815000e-06,1.42e-01,
-4.814000e-06,1.40e-01,
-4.813000e-06,1.40e-01,
-4.812000e-06,1.40e-01,
-4.811000e-06,1.40e-01,
-4.810000e-06,1.42e-01,
-4.809000e-06,1.42e-01,
-4.808000e-06,1.42e-01,
-4.807000e-06,1.42e-01,
-4.806000e-06,1.44e-01,
-4.805000e-06,1.46e-01,
-4.804000e-06,1.46e-01,
-4.803000e-06,1.46e-01,
-4.802000e-06,1.46e-01,
-4.801000e-06,1.46e-01,
-4.800000e-06,1.46e-01,
-4.799000e-06,1.46e-01,
-4.798000e-06,1.46e-01,
-4.797000e-06,1.48e-01,
-4.796000e-06,1.46e-01,
-4.795000e-06,1.46e-01,
-4.794000e-06,1.46e-01,
-4.793000e-06,1.46e-01,
-4.792000e-06,1.48e-01,
-4.791000e-06,1.48e-01,
-4.790000e-06,1.48e-01,
-4.789000e-06,1.48e-01,
-4.788000e-06,1.48e-01,
-4.787000e-06,1.44e-01,
-4.786000e-06,1.44e-01,
-4.785000e-06,1.46e-01,
-4.784000e-06,1.46e-01,
-4.783000e-06,1.46e-01,
-4.782000e-06,1.48e-01,
-4.781000e-06,1.48e-01,
-4.780000e-06,1.48e-01,
-4.779000e-06,1.46e-01,
-4.778000e-06,1.44e-01,
-4.777000e-06,1.42e-01,
-4.776000e-06,1.42e-01,
-4.775000e-06,1.42e-01,
-4.774000e-06,1.42e-01,
-4.773000e-06,1.44e-01,
-4.772000e-06,1.44e-01,
-4.771000e-06,1.46e-01,
-4.770000e-06,1.48e-01,
-4.769000e-06,1.50e-01,
-4.768000e-06,1.50e-01,
-4.767000e-06,1.50e-01,
-4.766000e-06,1.50e-01,
-4.765000e-06,1.50e-01,
-4.764000e-06,1.48e-01,
-4.763000e-06,1.46e-01,
-4.762000e-06,1.46e-01,
-4.761000e-06,1.46e-01,
-4.760000e-06,1.46e-01,
-4.759000e-06,1.46e-01,
-4.758000e-06,1.46e-01,
-4.757000e-06,1.48e-01,
-4.756000e-06,1.48e-01,
-4.755000e-06,1.48e-01,
-4.754000e-06,1.48e-01,
-4.753000e-06,1.48e-01,
-4.752000e-06,1.46e-01,
-4.751000e-06,1.42e-01,
-4.750000e-06,1.40e-01,
-4.749000e-06,1.40e-01,
-4.748000e-06,1.38e-01,
-4.747000e-06,1.38e-01,
-4.746000e-06,1.38e-01,
-4.745000e-06,1.38e-01,
-4.744000e-06,1.42e-01,
-4.743000e-06,1.44e-01,
-4.742000e-06,1.46e-01,
-4.741000e-06,1.48e-01,
-4.740000e-06,1.50e-01,
-4.739000e-06,1.50e-01,
-4.738000e-06,1.50e-01,
-4.737000e-06,1.48e-01,
-4.736000e-06,1.46e-01,
-4.735000e-06,1.44e-01,
-4.734000e-06,1.44e-01,
-4.733000e-06,1.42e-01,
-4.732000e-06,1.42e-01,
-4.731000e-06,1.40e-01,
-4.730000e-06,1.40e-01,
-4.729000e-06,1.38e-01,
-4.728000e-06,1.40e-01,
-4.727000e-06,1.38e-01,
-4.726000e-06,1.40e-01,
-4.725000e-06,1.40e-01,
-4.724000e-06,1.42e-01,
-4.723000e-06,1.42e-01,
-4.722000e-06,1.44e-01,
-4.721000e-06,1.44e-01,
-4.720000e-06,1.46e-01,
-4.719000e-06,1.48e-01,
-4.718000e-06,1.48e-01,
-4.717000e-06,1.52e-01,
-4.716000e-06,1.52e-01,
-4.715000e-06,1.52e-01,
-4.714000e-06,1.52e-01,
-4.713000e-06,1.50e-01,
-4.712000e-06,1.50e-01,
-4.711000e-06,1.48e-01,
-4.710000e-06,1.48e-01,
-4.709000e-06,1.46e-01,
-4.708000e-06,1.46e-01,
-4.707000e-06,1.46e-01,
-4.706000e-06,1.46e-01,
-4.705000e-06,1.46e-01,
-4.704000e-06,1.48e-01,
-4.703000e-06,1.48e-01,
-4.702000e-06,1.48e-01,
-4.701000e-06,1.46e-01,
-4.700000e-06,1.44e-01,
-4.699000e-06,1.42e-01,
-4.698000e-06,1.40e-01,
-4.697000e-06,1.36e-01,
-4.696000e-06,1.38e-01,
-4.695000e-06,1.38e-01,
-4.694000e-06,1.40e-01,
-4.693000e-06,1.40e-01,
-4.692000e-06,1.42e-01,
-4.691000e-06,1.42e-01,
-4.690000e-06,1.42e-01,
-4.689000e-06,1.42e-01,
-4.688000e-06,1.44e-01,
-4.687000e-06,1.44e-01,
-4.686000e-06,1.46e-01,
-4.685000e-06,1.48e-01,
-4.684000e-06,1.48e-01,
-4.683000e-06,1.50e-01,
-4.682000e-06,1.52e-01,
-4.681000e-06,1.52e-01,
-4.680000e-06,1.52e-01,
-4.679000e-06,1.52e-01,
-4.678000e-06,1.52e-01,
-4.677000e-06,1.52e-01,
-4.676000e-06,1.52e-01,
-4.675000e-06,1.52e-01,
-4.674000e-06,1.50e-01,
-4.673000e-06,1.46e-01,
-4.672000e-06,1.44e-01,
-4.671000e-06,1.44e-01,
-4.670000e-06,1.44e-01,
-4.669000e-06,1.42e-01,
-4.668000e-06,1.42e-01,
-4.667000e-06,1.42e-01,
-4.666000e-06,1.42e-01,
-4.665000e-06,1.42e-01,
-4.664000e-06,1.42e-01,
-4.663000e-06,1.42e-01,
-4.662000e-06,1.42e-01,
-4.661000e-06,1.42e-01,
-4.660000e-06,1.44e-01,
-4.659000e-06,1.46e-01,
-4.658000e-06,1.48e-01,
-4.657000e-06,1.48e-01,
-4.656000e-06,1.48e-01,
-4.655000e-06,1.50e-01,
-4.654000e-06,1.50e-01,
-4.653000e-06,1.48e-01,
-4.652000e-06,1.48e-01,
-4.651000e-06,1.46e-01,
-4.650000e-06,1.44e-01,
-4.649000e-06,1.44e-01,
-4.648000e-06,1.44e-01,
-4.647000e-06,1.42e-01,
-4.646000e-06,1.42e-01,
-4.645000e-06,1.42e-01,
-4.644000e-06,1.42e-01,
-4.643000e-06,1.42e-01,
-4.642000e-06,1.40e-01,
-4.641000e-06,1.40e-01,
-4.640000e-06,1.40e-01,
-4.639000e-06,1.40e-01,
-4.638000e-06,1.44e-01,
-4.637000e-06,1.46e-01,
-4.636000e-06,1.48e-01,
-4.635000e-06,1.50e-01,
-4.634000e-06,1.50e-01,
-4.633000e-06,1.50e-01,
-4.632000e-06,1.52e-01,
-4.631000e-06,1.52e-01,
-4.630000e-06,1.52e-01,
-4.629000e-06,1.50e-01,
-4.628000e-06,1.50e-01,
-4.627000e-06,1.50e-01,
-4.626000e-06,1.50e-01,
-4.625000e-06,1.48e-01,
-4.624000e-06,1.46e-01,
-4.623000e-06,1.48e-01,
-4.622000e-06,1.46e-01,
-4.621000e-06,1.46e-01,
-4.620000e-06,1.48e-01,
-4.619000e-06,1.48e-01,
-4.618000e-06,1.50e-01,
-4.617000e-06,1.52e-01,
-4.616000e-06,1.52e-01,
-4.615000e-06,1.52e-01,
-4.614000e-06,1.50e-01,
-4.613000e-06,1.48e-01,
-4.612000e-06,1.46e-01,
-4.611000e-06,1.44e-01,
-4.610000e-06,1.44e-01,
-4.609000e-06,1.44e-01,
-4.608000e-06,1.44e-01,
-4.607000e-06,1.46e-01,
-4.606000e-06,1.46e-01,
-4.605000e-06,1.48e-01,
-4.604000e-06,1.50e-01,
-4.603000e-06,1.50e-01,
-4.602000e-06,1.52e-01,
-4.601000e-06,1.52e-01,
-4.600000e-06,1.52e-01,
-4.599000e-06,1.52e-01,
-4.598000e-06,1.50e-01,
-4.597000e-06,1.50e-01,
-4.596000e-06,1.48e-01,
-4.595000e-06,1.48e-01,
-4.594000e-06,1.46e-01,
-4.593000e-06,1.44e-01,
-4.592000e-06,1.44e-01,
-4.591000e-06,1.44e-01,
-4.590000e-06,1.46e-01,
-4.589000e-06,1.44e-01,
-4.588000e-06,1.46e-01,
-4.587000e-06,1.46e-01,
-4.586000e-06,1.48e-01,
-4.585000e-06,1.48e-01,
-4.584000e-06,1.48e-01,
-4.583000e-06,1.50e-01,
-4.582000e-06,1.50e-01,
-4.581000e-06,1.50e-01,
-4.580000e-06,1.50e-01,
-4.579000e-06,1.50e-01,
-4.578000e-06,1.50e-01,
-4.577000e-06,1.50e-01,
-4.576000e-06,1.50e-01,
-4.575000e-06,1.50e-01,
-4.574000e-06,1.48e-01,
-4.573000e-06,1.48e-01,
-4.572000e-06,1.48e-01,
-4.571000e-06,1.46e-01,
-4.570000e-06,1.46e-01,
-4.569000e-06,1.46e-01,
-4.568000e-06,1.46e-01,
-4.567000e-06,1.44e-01,
-4.566000e-06,1.44e-01,
-4.565000e-06,1.44e-01,
-4.564000e-06,1.42e-01,
-4.563000e-06,1.42e-01,
-4.562000e-06,1.42e-01,
-4.561000e-06,1.42e-01,
-4.560000e-06,1.44e-01,
-4.559000e-06,1.46e-01,
-4.558000e-06,1.46e-01,
-4.557000e-06,1.48e-01,
-4.556000e-06,1.48e-01,
-4.555000e-06,1.48e-01,
-4.554000e-06,1.48e-01,
-4.553000e-06,1.44e-01,
-4.552000e-06,1.46e-01,
-4.551000e-06,1.46e-01,
-4.550000e-06,1.46e-01,
-4.549000e-06,1.46e-01,
-4.548000e-06,1.46e-01,
-4.547000e-06,1.46e-01,
-4.546000e-06,1.46e-01,
-4.545000e-06,1.46e-01,
-4.544000e-06,1.48e-01,
-4.543000e-06,1.46e-01,
-4.542000e-06,1.48e-01,
-4.541000e-06,1.48e-01,
-4.540000e-06,1.48e-01,
-4.539000e-06,1.48e-01,
-4.538000e-06,1.48e-01,
-4.537000e-06,1.48e-01,
-4.536000e-06,1.48e-01,
-4.535000e-06,1.48e-01,
-4.534000e-06,1.48e-01,
-4.533000e-06,1.48e-01,
-4.532000e-06,1.46e-01,
-4.531000e-06,1.44e-01,
-4.530000e-06,1.46e-01,
-4.529000e-06,1.46e-01,
-4.528000e-06,1.46e-01,
-4.527000e-06,1.46e-01,
-4.526000e-06,1.46e-01,
-4.525000e-06,1.44e-01,
-4.524000e-06,1.44e-01,
-4.523000e-06,1.42e-01,
-4.522000e-06,1.42e-01,
-4.521000e-06,1.40e-01,
-4.520000e-06,1.40e-01,
-4.519000e-06,1.42e-01,
-4.518000e-06,1.44e-01,
-4.517000e-06,1.46e-01,
-4.516000e-06,1.48e-01,
-4.515000e-06,1.48e-01,
-4.514000e-06,1.48e-01,
-4.513000e-06,1.46e-01,
-4.512000e-06,1.42e-01,
-4.511000e-06,1.40e-01,
-4.510000e-06,1.38e-01,
-4.509000e-06,1.36e-01,
-4.508000e-06,1.34e-01,
-4.507000e-06,1.34e-01,
-4.506000e-06,1.34e-01,
-4.505000e-06,1.36e-01,
-4.504000e-06,1.40e-01,
-4.503000e-06,1.40e-01,
-4.502000e-06,1.44e-01,
-4.501000e-06,1.44e-01,
-4.500000e-06,1.46e-01,
-4.499000e-06,1.48e-01,
-4.498000e-06,1.50e-01,
-4.497000e-06,1.50e-01,
-4.496000e-06,1.48e-01,
-4.495000e-06,1.48e-01,
-4.494000e-06,1.46e-01,
-4.493000e-06,1.46e-01,
-4.492000e-06,1.46e-01,
-4.491000e-06,1.46e-01,
-4.490000e-06,1.46e-01,
-4.489000e-06,1.46e-01,
-4.488000e-06,1.46e-01,
-4.487000e-06,1.46e-01,
-4.486000e-06,1.46e-01,
-4.485000e-06,1.46e-01,
-4.484000e-06,1.46e-01,
-4.483000e-06,1.46e-01,
-4.482000e-06,1.46e-01,
-4.481000e-06,1.44e-01,
-4.480000e-06,1.44e-01,
-4.479000e-06,1.44e-01,
-4.478000e-06,1.44e-01,
-4.477000e-06,1.44e-01,
-4.476000e-06,1.44e-01,
-4.475000e-06,1.42e-01,
-4.474000e-06,1.46e-01,
-4.473000e-06,1.44e-01,
-4.472000e-06,1.44e-01,
-4.471000e-06,1.46e-01,
-4.470000e-06,1.46e-01,
-4.469000e-06,1.46e-01,
-4.468000e-06,1.46e-01,
-4.467000e-06,1.46e-01,
-4.466000e-06,1.48e-01,
-4.465000e-06,1.46e-01,
-4.464000e-06,1.46e-01,
-4.463000e-06,1.44e-01,
-4.462000e-06,1.44e-01,
-4.461000e-06,1.42e-01,
-4.460000e-06,1.42e-01,
-4.459000e-06,1.40e-01,
-4.458000e-06,1.40e-01,
-4.457000e-06,1.40e-01,
-4.456000e-06,1.42e-01,
-4.455000e-06,1.42e-01,
-4.454000e-06,1.46e-01,
-4.453000e-06,1.48e-01,
-4.452000e-06,1.48e-01,
-4.451000e-06,1.48e-01,
-4.450000e-06,1.48e-01,
-4.449000e-06,1.48e-01,
-4.448000e-06,1.48e-01,
-4.447000e-06,1.48e-01,
-4.446000e-06,1.46e-01,
-4.445000e-06,1.46e-01,
-4.444000e-06,1.46e-01,
-4.443000e-06,1.46e-01,
-4.442000e-06,1.46e-01,
-4.441000e-06,1.46e-01,
-4.440000e-06,1.48e-01,
-4.439000e-06,1.46e-01,
-4.438000e-06,1.46e-01,
-4.437000e-06,1.46e-01,
-4.436000e-06,1.46e-01,
-4.435000e-06,1.46e-01,
-4.434000e-06,1.46e-01,
-4.433000e-06,1.46e-01,
-4.432000e-06,1.46e-01,
-4.431000e-06,1.44e-01,
-4.430000e-06,1.44e-01,
-4.429000e-06,1.42e-01,
-4.428000e-06,1.38e-01,
-4.427000e-06,1.38e-01,
-4.426000e-06,1.38e-01,
-4.425000e-06,1.40e-01,
-4.424000e-06,1.42e-01,
-4.423000e-06,1.40e-01,
-4.422000e-06,1.42e-01,
-4.421000e-06,1.40e-01,
-4.420000e-06,1.40e-01,
-4.419000e-06,1.38e-01,
-4.418000e-06,1.38e-01,
-4.417000e-06,1.38e-01,
-4.416000e-06,1.40e-01,
-4.415000e-06,1.42e-01,
-4.414000e-06,1.42e-01,
-4.413000e-06,1.42e-01,
-4.412000e-06,1.44e-01,
-4.411000e-06,1.44e-01,
-4.410000e-06,1.46e-01,
-4.409000e-06,1.46e-01,
-4.408000e-06,1.46e-01,
-4.407000e-06,1.48e-01,
-4.406000e-06,1.46e-01,
-4.405000e-06,1.46e-01,
-4.404000e-06,1.46e-01,
-4.403000e-06,1.44e-01,
-4.402000e-06,1.44e-01,
-4.401000e-06,1.42e-01,
-4.400000e-06,1.42e-01,
-4.399000e-06,1.42e-01,
-4.398000e-06,1.42e-01,
-4.397000e-06,1.42e-01,
-4.396000e-06,1.44e-01,
-4.395000e-06,1.44e-01,
-4.394000e-06,1.44e-01,
-4.393000e-06,1.46e-01,
-4.392000e-06,1.46e-01,
-4.391000e-06,1.46e-01,
-4.390000e-06,1.46e-01,
-4.389000e-06,1.46e-01,
-4.388000e-06,1.46e-01,
-4.387000e-06,1.44e-01,
-4.386000e-06,1.44e-01,
-4.385000e-06,1.42e-01,
-4.384000e-06,1.42e-01,
-4.383000e-06,1.42e-01,
-4.382000e-06,1.44e-01,
-4.381000e-06,1.44e-01,
-4.380000e-06,1.46e-01,
-4.379000e-06,1.48e-01,
-4.378000e-06,1.48e-01,
-4.377000e-06,1.48e-01,
-4.376000e-06,1.46e-01,
-4.375000e-06,1.46e-01,
-4.374000e-06,1.46e-01,
-4.373000e-06,1.46e-01,
-4.372000e-06,1.44e-01,
-4.371000e-06,1.44e-01,
-4.370000e-06,1.46e-01,
-4.369000e-06,1.48e-01,
-4.368000e-06,1.50e-01,
-4.367000e-06,1.52e-01,
-4.366000e-06,1.54e-01,
-4.365000e-06,1.54e-01,
-4.364000e-06,1.52e-01,
-4.363000e-06,1.50e-01,
-4.362000e-06,1.48e-01,
-4.361000e-06,1.46e-01,
-4.360000e-06,1.44e-01,
-4.359000e-06,1.42e-01,
-4.358000e-06,1.42e-01,
-4.357000e-06,1.44e-01,
-4.356000e-06,1.44e-01,
-4.355000e-06,1.46e-01,
-4.354000e-06,1.48e-01,
-4.353000e-06,1.50e-01,
-4.352000e-06,1.50e-01,
-4.351000e-06,1.50e-01,
-4.350000e-06,1.50e-01,
-4.349000e-06,1.50e-01,
-4.348000e-06,1.48e-01,
-4.347000e-06,1.46e-01,
-4.346000e-06,1.46e-01,
-4.345000e-06,1.44e-01,
-4.344000e-06,1.42e-01,
-4.343000e-06,1.42e-01,
-4.342000e-06,1.44e-01,
-4.341000e-06,1.44e-01,
-4.340000e-06,1.46e-01,
-4.339000e-06,1.46e-01,
-4.338000e-06,1.46e-01,
-4.337000e-06,1.46e-01,
-4.336000e-06,1.46e-01,
-4.335000e-06,1.46e-01,
-4.334000e-06,1.46e-01,
-4.333000e-06,1.46e-01,
-4.332000e-06,1.46e-01,
-4.331000e-06,1.46e-01,
-4.330000e-06,1.48e-01,
-4.329000e-06,1.50e-01,
-4.328000e-06,1.50e-01,
-4.327000e-06,1.52e-01,
-4.326000e-06,1.50e-01,
-4.325000e-06,1.50e-01,
-4.324000e-06,1.50e-01,
-4.323000e-06,1.50e-01,
-4.322000e-06,1.50e-01,
